<svg width="200" height="200" viewBox="0 0 200 200" fill="none" xmlns="http://www.w3.org/2000/svg">
    <path d="M169.908 90.275C196.508 31.5583 171.917 15 171.917 15C171.917 15 136.2 46.0167 108.267 66.1125C83.4375 83.9667 45.9375 85.3833 24.3042 113.667C4.93333 138.996 59.675 212.25 123.204 179.462C157.846 161.583 156.583 119.696 169.908 90.275Z" fill="url(#paint0_radial)"/>
    <path d="M158.187 83.8958C172.117 56.2125 191.271 29.7875 171.917 15C151.667 -0.487516 127.183 23.9292 99.25 44.025C74.4208 61.8917 48.1833 71.0625 31.0541 92.9166C11.3791 118.004 19.2958 149.083 42.7541 162.8C43.4833 163.217 44.2541 163.571 45 163.958C45.7458 164.346 46.4375 164.792 47.2166 165.129C71.0625 176.167 105.733 169.858 125.921 148.308C148.333 124.367 146.121 107.867 158.187 83.8958Z" fill="#6A8C43"/>
    <path d="M72.9875 168.375C64.416 168.468 55.925 166.714 48.0917 163.233C47.6458 163.025 47.2291 162.792 46.8125 162.563L45.9792 162.1L45.1125 161.683C44.6958 161.471 44.2416 161.267 43.825 161.013C38.4171 157.896 33.7393 153.657 30.1063 148.582C26.4732 143.506 23.9692 137.712 22.7625 131.588C21.6202 125.008 21.9183 118.259 23.636 111.806C25.3538 105.353 28.4504 99.3492 32.7125 94.2084C43.675 80.225 58.65 71.4375 74.5042 62.125C83.0167 57.125 91.8208 51.9584 100.483 45.7292C104.937 42.525 109.308 39.2084 113.587 35.9584C129.696 23.7375 144.908 12.2084 157.9 12.2084C162.541 12.1993 167.046 13.7735 170.671 16.6709C185.621 28.1084 175.158 47.6292 163.037 70.2334C160.787 74.4292 158.504 78.6917 156.342 82.9875C152.696 90.4686 149.631 98.2193 147.175 106.171C143.067 121.422 135.244 135.417 124.404 146.904C117.715 153.754 109.716 159.187 100.884 162.881C92.0511 166.575 82.5654 168.453 72.9916 168.404L72.9875 168.375Z" fill="#95B356"/>
    <path d="M72.9917 166.292C64.7209 166.385 56.5268 164.697 48.9667 161.342C48.5917 161.167 48.2333 160.967 47.8792 160.771L46.9625 160.271L46.0292 159.804C45.6125 159.604 45.2292 159.417 44.8583 159.196C39.7075 156.229 35.2517 152.194 31.7905 147.361C28.3292 142.528 25.9428 137.011 24.7917 131.179C23.7096 124.893 24.0023 118.446 25.6494 112.283C27.2966 106.121 30.2591 100.388 34.3333 95.4792C45.0542 81.8084 59.8625 73.1125 75.5375 63.9125C84.1 58.8875 92.9417 53.6959 101.683 47.4042C106.154 44.1917 110.538 40.8667 114.829 37.6084C130.663 25.6042 145.592 14.275 157.883 14.275C162.066 14.273 166.124 15.6972 169.388 18.3125C182.933 28.6709 172.854 47.4792 161.188 69.2334C158.879 73.5334 156.604 77.7709 154.463 82.0375C150.782 89.6032 147.686 97.44 145.204 105.479C141.184 120.452 133.515 134.195 122.883 145.479C116.389 152.118 108.625 157.383 100.054 160.958C91.4822 164.534 82.2788 166.348 72.9917 166.292Z" fill="#B2D171"/>
    <path d="M72.9917 164.208C65.0234 164.302 57.1282 162.68 49.8417 159.454C49.55 159.317 49.2708 159.162 49.0083 159.008L47.975 158.442L46.9792 157.942C46.5625 157.737 46.2375 157.579 45.9292 157.4C41.0339 154.583 36.7986 150.751 33.5084 146.16C30.2181 141.57 27.9492 136.328 26.8542 130.787C25.8287 124.793 26.1145 118.648 27.692 112.775C29.2694 106.902 32.1009 101.44 35.9917 96.7667C46.4667 83.4042 61.1083 74.8083 76.6083 65.7083C85.2125 60.6583 94.1083 55.4416 102.917 49.0958C107.4 45.8708 111.8 42.5333 116.104 39.2666C131.637 27.4791 146.312 16.35 157.9 16.35C161.624 16.3525 165.235 17.6254 168.137 19.9583C180.275 29.2416 170.587 47.3125 159.387 68.2375C157.062 72.575 154.804 76.8208 152.642 81.0916C148.913 88.74 145.78 96.665 143.271 104.796C139.33 119.478 131.816 132.956 121.4 144.029C115.1 150.471 107.567 155.578 99.2495 159.045C90.9325 162.512 82.0022 164.268 72.9917 164.208Z" fill="#D8F089"/>
    <path d="M72.9917 162.125C65.3254 162.219 57.7286 160.663 50.7167 157.562C50.4792 157.45 48.9542 156.612 48.9542 156.612L47.9167 156.083C47.5 155.883 47.2333 155.75 46.975 155.6C42.3369 152.937 38.3229 149.312 35.203 144.968C32.0831 140.624 29.9296 135.662 28.8875 130.417C27.9188 124.715 28.1971 118.871 29.7034 113.287C31.2096 107.703 33.9079 102.512 37.6125 98.0708C47.8458 85.0166 62.325 76.5208 77.6458 67.5249C86.2792 62.4624 95.2 57.2249 104.117 50.8083C108.613 47.575 113.025 44.225 117.35 40.95C132.592 29.3791 146.992 18.45 157.883 18.45C161.148 18.4573 164.313 19.5789 166.854 21.6291C177.583 29.8333 168.287 47.1791 157.521 67.2625C155.179 71.625 152.9 75.8833 150.742 80.1791C146.967 87.8969 143.794 95.8942 141.25 104.1C137.392 118.503 130.033 131.728 119.829 142.6C113.73 148.829 106.441 153.768 98.3945 157.122C90.348 160.476 81.7091 162.178 72.9917 162.125Z" fill="#EDF98E"/>
    <path d="M72.9917 160.042C65.6274 160.136 58.329 158.646 51.5917 155.671C51.3334 155.546 49.9584 154.787 49.9584 154.787L48.8417 154.225C48.4459 154.029 48.225 153.925 48.0084 153.808C43.6272 151.292 39.8357 147.867 36.889 143.763C33.9423 139.66 31.9087 134.972 30.925 130.017C30.0156 124.606 30.2897 119.062 31.7283 113.767C33.1669 108.473 35.7359 103.552 39.2584 99.3458C49.2584 86.6 63.5542 78.2041 78.7042 69.3125C87.3709 64.225 96.3375 58.9666 105.338 52.4875C109.85 49.2416 114.275 45.8833 118.613 42.5958C133.575 31.2416 147.7 20.5125 157.888 20.5125C160.695 20.5274 163.413 21.4972 165.596 23.2625C174.917 30.3875 166.013 47.0125 155.688 66.2583C153.338 70.6375 151.05 74.9125 148.883 79.2166C145.068 87.0293 141.864 95.1257 139.3 103.433C135.522 117.547 128.32 130.51 118.333 141.175C112.428 147.201 105.37 151.977 97.5806 155.218C89.7909 158.459 81.4286 160.1 72.9917 160.042Z" fill="#ECF986"/>
    <path d="M101.504 67.5375C90.5094 65.8899 79.2878 68.2277 69.8657 74.1288C60.4436 80.0299 53.442 89.1055 50.125 99.7166C47.7928 107.148 48.0573 115.151 50.875 122.412C52.0982 125.417 53.9623 128.118 56.3372 130.327C58.712 132.536 61.5404 134.201 64.625 135.204C66.8215 135.944 69.0851 136.467 71.3833 136.767C81.676 137.763 92.0107 135.348 100.796 129.893C109.581 124.438 116.329 116.246 120 106.579C122.207 100.652 122.833 94.2513 121.817 88.0083C120.898 82.9721 118.485 78.329 114.891 74.6831C111.297 71.0373 106.689 68.5576 101.667 67.5666L101.504 67.5375Z" fill="url(#paint1_radial)"/>
    <path d="M86.1752 99.8568C94.5199 92.7896 97.523 82.6189 92.8828 77.1401C88.2427 71.6613 77.7165 72.949 69.3718 80.0163C61.0272 87.0836 58.0241 97.2542 62.6642 102.733C67.3043 108.212 77.8306 106.924 86.1752 99.8568Z" fill="url(#paint2_radial)"/>
    <defs>
        <radialGradient id="paint0_radial" cx="0" cy="0" r="1" gradientUnits="userSpaceOnUse" gradientTransform="translate(38.2679 121.021) rotate(37.4083) scale(109.588 122.61)">
            <stop stop-color="#6B6324"/>
            <stop offset="0.231" stop-color="#625E21"/>
            <stop offset="0.611" stop-color="#494F17"/>
            <stop offset="1" stop-color="#293D0B"/>
        </radialGradient>
        <radialGradient id="paint1_radial" cx="0" cy="0" r="1" gradientUnits="userSpaceOnUse" gradientTransform="translate(74.1971 86.9901) rotate(-40.011) scale(48.1549 36.8421)">
            <stop stop-color="#F4A061"/>
            <stop offset="0.094" stop-color="#DB8A51"/>
            <stop offset="0.288" stop-color="#AD6232"/>
            <stop offset="0.437" stop-color="#90491F"/>
            <stop offset="0.522" stop-color="#854018"/>
            <stop offset="1" stop-color="#592C15"/>
        </radialGradient>
        <radialGradient id="paint2_radial" cx="0" cy="0" r="1" gradientUnits="userSpaceOnUse" gradientTransform="translate(77.7039 89.9232) rotate(-39.7646) scale(17.0048 13.5696)">
            <stop stop-color="#F1D2C4" stop-opacity="0.7"/>
            <stop offset="0.125" stop-color="#F0CFC0" stop-opacity="0.677"/>
            <stop offset="0.284" stop-color="#EDC8B5" stop-opacity="0.611"/>
            <stop offset="0.463" stop-color="#E9BCA2" stop-opacity="0.503"/>
            <stop offset="0.654" stop-color="#E3AC89" stop-opacity="0.351"/>
            <stop offset="0.854" stop-color="#DB9768" stop-opacity="0.159"/>
            <stop offset="1" stop-color="#D5854D" stop-opacity="0"/>
        </radialGradient>
    </defs>
</svg>
