<svg width="280" height="210" viewBox="0 0 280 210" fill="none" xmlns="http://www.w3.org/2000/svg">
    <g filter="url(#filter0_d)">
        <mask id="mask0" mask-type="alpha" maskUnits="userSpaceOnUse" x="50" y="30" width="180" height="180">
            <path d="M50 34C50 31.7909 51.7909 30 54 30H226C228.209 30 230 31.7909 230 34V210H50V34Z" fill="white"/>
        </mask>
        <g mask="url(#mask0)">
            <path d="M50 34C50 31.7909 51.7909 30 54 30H226C228.209 30 230 31.7909 230 34V210H50V34Z" fill="white"/>
            <path d="M90.2219 34.1704C87.1381 35.4107 85.1383 38.0121 84.3677 40.682C83.5971 43.3519 83.8339 46.0969 84.7995 48.4976C85.7341 50.8214 87.0316 52.8026 88.4409 54.4851C85.2203 54.7818 81.1524 54.7911 77.7047 56.1778C60.1247 63.2485 63.3291 87.5178 67.1257 97.3289C63.9681 100.297 57.8882 99.7476 56.1405 95.4022C53.9135 89.8652 58.5609 84.5402 56.4044 79.1785C54.2268 73.7642 50.041 70.6988 44.7757 72.8165C40.2409 74.6405 36.0043 79.0974 40.9273 91.3373C47.519 107.726 60.3388 107.292 66.6852 104.739C68.2195 104.122 69.4556 103.39 70.4632 102.643C72.2962 104.268 74.412 104.664 76.6779 104.347C77.0285 105.071 77.643 105.634 78.3952 105.919C79.1474 106.205 79.9804 106.192 80.7233 105.882L98.2547 98.8313C98.7157 98.6533 99.1284 98.3694 99.4594 98.0025C99.7904 97.6356 100.03 97.196 100.16 96.7191C100.29 96.2423 100.305 95.7417 100.206 95.2577C100.106 94.7737 99.8939 94.3199 99.5864 93.9331C100.915 93.0479 102.058 92.1416 103.105 91.225L105.331 92.7034C107.252 93.9803 109.692 94.231 111.831 93.3707L115.786 91.78C116.176 91.6298 116.531 91.4036 116.832 91.1147C117.134 90.8258 117.375 90.4799 117.541 90.0972C117.707 89.7144 117.796 89.3024 117.802 88.885C117.808 88.4677 117.73 88.0534 117.575 87.6662C117.419 87.2789 117.188 86.9265 116.895 86.6294C116.601 86.3323 116.252 86.0964 115.867 85.9354C115.482 85.7745 115.069 85.6916 114.651 85.6918C114.234 85.6919 113.821 85.775 113.436 85.9362L110.491 87.1206C108.501 87.9209 108.153 84.6201 108.694 83.8389C111.515 79.7544 111.973 74.6434 113.203 74.1487C115.544 73.2073 119.237 73.4192 121.598 72.4696C126.174 70.6293 126.145 66.8963 125.091 64.2754L122.741 58.4316C121.434 55.1824 119.506 52.5758 117.309 50.4656C117.853 47.8412 117.273 44.9646 116.236 42.2583C114.694 38.2329 111.851 34.2706 107.738 31.8458C107.333 31.5984 106.878 31.4458 106.406 31.3992C105.933 31.3526 105.457 31.4133 105.011 31.5768C104.448 31.7836 103.955 32.1471 103.591 32.6247C103.227 33.1022 103.007 33.6739 102.957 34.2723C102.907 34.8706 103.029 35.4708 103.309 36.002C103.589 36.5333 104.015 36.9734 104.537 37.2707C107.064 38.7609 109.272 41.691 110.355 44.5174C110.55 45.0254 110.651 45.4954 110.759 45.9662C109.433 45.3591 108.109 44.9284 106.808 44.5984C105.84 42.6284 104.665 40.5527 103.141 38.6474C101.732 36.8858 100.034 35.2629 97.8226 34.2759C95.6113 33.2888 92.8271 33.1226 90.2219 34.1704ZM92.5723 40.0142C93.7262 39.5501 94.3715 39.6334 95.2566 40.0285C96.1417 40.4236 97.2068 41.3158 98.2199 42.5827C100.001 44.8093 101.446 47.9285 102.476 50.3784C100.579 50.7706 98.9796 51.9536 101.092 55.3772C99.5232 55.1088 98.3543 54.6712 97.0041 53.7858C94.7712 52.1166 92.0235 49.5787 90.6433 46.1471C90.2009 45.0473 90.0924 43.5571 90.4192 42.425C90.746 41.2929 91.2879 40.5308 92.5723 40.0142ZM110.894 56.4072C112.104 55.9206 113.481 56.5075 113.967 57.7172C114.454 58.9269 113.867 60.3035 112.657 60.79C111.447 61.2766 110.071 60.6897 109.584 59.48C109.098 58.2703 109.685 56.8937 110.894 56.4072Z" fill="#ED6278"/>
            <path d="M204.75 27.7613L197.482 37.3514L182.675 44.1054L171.768 37.8032C166.314 34.652 162.435 28.7739 159.708 27.1983C158.085 26.2602 153.556 23.6757 148.498 24.5927L138.007 23.888C137.594 23.8602 137.18 23.9141 136.788 24.0464C136.396 24.1788 136.034 24.3871 135.723 24.6594C135.411 24.9317 135.156 25.2627 134.973 25.6335C134.789 26.0043 134.681 26.4076 134.653 26.8204C134.625 27.2332 134.679 27.6474 134.812 28.0393C134.944 28.4313 135.153 28.7933 135.425 29.1046C135.698 29.416 136.029 29.6707 136.399 29.8541C136.77 30.0375 137.174 30.1461 137.586 30.1736L139.947 30.3298C139.351 31.1154 138.764 31.9712 138.196 32.9552C135.775 37.1458 134.452 41.4143 134.73 44.9409C134.068 45.2801 133.274 45.6175 132.102 45.9866C130.974 46.3412 130.02 47.1057 129.429 48.1292L124.803 56.1343C124.483 56.6719 124.272 57.2679 124.183 57.8876C124.095 58.5074 124.13 59.1386 124.288 59.7445C124.445 60.3504 124.722 60.919 125.101 61.4171C125.48 61.9153 125.955 62.3331 126.497 62.6463C127.039 62.9595 127.638 63.1619 128.259 63.2416C128.88 63.3213 129.51 63.2768 130.114 63.1107C130.718 62.9446 131.282 62.6602 131.775 62.2739C132.268 61.8877 132.679 61.4074 132.984 60.861L136.163 55.3592C136.163 55.3592 138.437 55.2728 141.467 54.7009L138.053 64.8763C137.322 67.0404 138.256 69.3631 140.16 70.4628C140.43 70.6188 140.719 70.7523 141.026 70.8569C143.496 71.6874 146.18 70.3521 147.01 67.8778L150.292 58.2015C154.97 61.2865 156.336 65.2598 161.466 68.2238L157.527 75.0412C157.206 75.5788 156.995 76.1748 156.907 76.7945C156.818 77.4143 156.854 78.0455 157.011 78.6514C157.169 79.2573 157.445 79.8259 157.824 80.324C158.204 80.8222 158.678 81.24 159.22 81.5532C159.762 81.8664 160.361 82.0688 160.982 82.1485C161.603 82.2282 162.234 82.1837 162.837 82.0176C163.441 81.8515 164.006 81.567 164.498 81.1808C164.991 80.7946 165.402 80.3143 165.708 79.7679L169.647 72.9505L172.373 74.5261C173.327 75.0771 174.295 75.4955 175.264 75.8194L171.162 82.919C170.841 83.4566 170.63 84.0526 170.541 84.6724C170.453 85.2922 170.488 85.9234 170.646 86.5293C170.804 87.1352 171.08 87.7037 171.459 88.2019C171.838 88.7001 172.313 89.1179 172.855 89.4311C173.397 89.7443 173.996 89.9466 174.617 90.0263C175.238 90.1061 175.868 90.0616 176.472 89.8955C177.076 89.7294 177.64 89.4449 178.133 89.0587C178.626 88.6725 179.037 88.1922 179.342 87.6458L186.312 75.5822C188.986 74.6416 191.08 73.249 192.003 72.0288C194.78 68.3556 202.915 59.437 202.915 59.437L205.642 61.0126C207.377 62.0151 214.779 61.0643 217.687 58.5233C218.038 58.2649 218.332 57.9363 218.55 57.5584C218.855 57.0301 219 56.4246 218.967 55.8155C218.934 55.2064 218.725 54.6199 218.366 54.1273C218.366 54.1271 218.361 54.1105 218.361 54.1105L214.925 47.9835C214.925 47.9835 215.969 41.5179 211.979 39.2128L207.052 36.3663C207.052 36.3663 208.884 30.1499 204.75 27.7613Z" fill="#9583C4"/>
            <path d="M178.01 91.3635C172.164 91.4332 169.972 94.1881 167.732 96.0714C165.244 94.4701 161.445 92.2734 156.609 92.8792C156.364 96.3065 156.513 104.103 165.129 106.233C164.54 114.51 160.599 118.539 157.951 118.351C149.422 117.743 146.384 95.4249 121.519 93.6534C106.949 92.6153 102.516 98.7373 102.227 102.796C100.673 124.598 112.628 134.066 112.628 134.066C111.428 139.881 105.058 143.614 105.76 144.845C109.503 148.187 115.881 145.67 120.887 141.698C120.887 141.698 127.357 145.544 133.795 147.237C136.622 157.277 148.092 163.405 151.252 161.632C153.293 160.596 149.769 154.441 149.01 142.976C161.132 140.224 169.852 125.526 171.371 107.04L171.412 106.68C178.08 104.56 179.533 97.9036 178.01 91.3635ZM134.538 136.757C134.39 138.834 132.226 140.176 130.307 139.373C117.196 133.896 112.027 124.421 109.995 118.113C109.449 116.423 111.539 115.139 112.791 116.399C116.583 120.218 123.187 125.911 133.377 131.692C134.254 132.193 134.795 133.154 134.723 134.162L134.538 136.757ZM135.514 123.067C133.779 122.943 132.472 121.436 132.596 119.702C132.719 117.968 134.227 116.66 135.961 116.784C137.695 116.908 139.002 118.415 138.879 120.149C138.755 121.883 137.248 123.19 135.514 123.067Z" fill="#C0E3FC"/>
            <path d="M186.574 82.0354C186.466 82.0318 186.357 82.0339 186.248 82.0415C185.753 82.0746 185.273 82.2242 184.846 82.4783C184.846 82.4783 180.116 85.6124 180.116 91.7296C180.116 99.0224 186.415 102.537 186.415 102.537C186.568 102.624 186.728 102.698 186.894 102.759C186.629 104.069 186.465 105.421 186.439 106.818C186.422 106.955 186.414 107.093 186.415 107.231C186.415 107.237 186.415 107.243 186.415 107.249V107.255C186.415 107.265 186.414 107.276 186.415 107.286C186.423 114.899 188.153 120.248 189.736 124.835C191.324 129.433 192.713 133.203 192.713 138.749C192.707 139.166 192.785 139.581 192.94 139.968C193.096 140.355 193.327 140.708 193.62 141.005C193.913 141.302 194.262 141.538 194.647 141.699C195.032 141.86 195.445 141.943 195.863 141.943C196.28 141.943 196.693 141.86 197.078 141.699C197.463 141.538 197.813 141.302 198.106 141.005C198.399 140.708 198.63 140.355 198.785 139.968C198.941 139.581 199.018 139.166 199.012 138.749L200.07 127.708C201.112 128.262 202.217 128.755 203.361 129.221C203.525 129.517 203.703 129.849 203.964 130.5C204.606 132.105 205.323 134.743 205.323 138.694C205.317 139.111 205.394 139.525 205.55 139.913C205.706 140.3 205.937 140.652 206.23 140.95C206.523 141.247 206.872 141.483 207.257 141.644C207.642 141.805 208.055 141.888 208.473 141.888C208.89 141.888 209.303 141.805 209.688 141.644C210.073 141.483 210.422 141.247 210.715 140.95C211.008 140.652 211.24 140.3 211.395 139.913C211.551 139.525 211.628 139.111 211.622 138.694L213.461 131.903C215.874 132.25 218.401 132.45 221.058 132.45C221.739 132.45 222.328 132.39 222.989 132.376C223.061 132.535 223.102 132.584 223.186 132.795C223.673 134.016 224.207 135.966 224.207 138.749C224.201 139.166 224.278 139.581 224.434 139.968C224.59 140.355 224.821 140.708 225.114 141.005C225.407 141.302 225.756 141.538 226.141 141.699C226.526 141.86 226.939 141.943 227.357 141.943C227.774 141.943 228.187 141.86 228.572 141.699C228.957 141.538 229.306 141.302 229.6 141.005C229.893 140.708 230.124 140.355 230.279 139.968C230.435 139.581 230.512 139.166 230.506 138.749L231.792 131.792C232.966 131.656 234.185 131.547 235.279 131.374C235.689 132.631 236.805 136.175 236.805 138.737C236.798 139.154 236.874 139.569 237.029 139.956C237.184 140.344 237.415 140.696 237.707 140.994C238 141.292 238.348 141.529 238.733 141.69C239.118 141.852 239.531 141.936 239.948 141.937C240.365 141.938 240.779 141.855 241.164 141.695C241.549 141.535 241.899 141.3 242.193 141.003C242.486 140.706 242.718 140.354 242.874 139.967C243.031 139.581 243.109 139.166 243.104 138.749C243.104 138.745 243.104 138.741 243.104 138.737V129.676C250.555 127.654 255.42 125.038 257.793 123.586C258.319 122.327 262 113.112 262 110.829C262 107.761 256.976 109.276 256.507 107.815C255.238 103.847 253.764 100.951 251.008 97.3641C250.328 96.4791 248.978 96.5033 248.32 97.4071L246.684 99.6708C246.066 100.512 245.107 100.956 244.137 100.956C243.491 100.956 242.837 100.76 242.279 100.347C240.896 99.339 240.593 97.417 241.566 96.017C243.194 93.7608 244.636 91.7195 245.878 90.4071C247.342 88.8595 248.266 88.3588 249.402 88.3588C249.82 88.3647 250.234 88.2876 250.621 88.132C251.009 87.9763 251.361 87.7453 251.658 87.4523C251.956 87.1592 252.192 86.8101 252.353 86.425C252.514 86.04 252.597 85.6268 252.597 85.2094C252.597 84.792 252.514 84.3788 252.353 83.9938C252.192 83.6087 251.956 83.2596 251.658 82.9665C251.361 82.6735 251.009 82.4424 250.621 82.2868C250.234 82.1312 249.82 82.0541 249.402 82.06C247.988 82.06 246.713 82.4424 245.527 82.9888C245.529 82.9834 245.552 82.9027 245.552 82.9027C245.552 82.9027 238.285 86.2511 237.586 85.8983C232.887 83.5205 227.385 82.06 221.058 82.06C205.56 82.06 193.99 87.7518 189.053 96.7736C188.313 96.2952 186.415 94.7911 186.415 91.7296C186.415 88.4175 187.983 87.9405 187.983 87.9405C188.586 87.6076 189.063 87.0862 189.342 86.4562C189.62 85.8262 189.684 85.1222 189.525 84.4522C189.365 83.7822 188.99 83.1831 188.457 82.7466C187.924 82.31 187.263 82.0602 186.574 82.0354ZM247.828 110.405C248.697 110.405 249.402 111.11 249.402 111.979C249.402 112.848 248.697 113.554 247.828 113.554C246.958 113.554 246.253 112.848 246.253 111.979C246.253 111.11 246.958 110.405 247.828 110.405Z" fill="#EFB256"/>
            <path d="M200.506 141.101C195.714 142.52 192.965 148.112 197.446 151.719C198.761 152.778 201.024 154.12 202.243 154.469C203.377 154.793 204.633 156.498 203.827 157.824C202.413 160.15 199.056 159.436 197.799 158.806C194.714 157.262 190.709 154.875 187.766 150.658C181.897 150.215 175.786 150.58 163.912 154.095C160.479 155.111 156.025 157.986 152.857 162.756C152.205 162.66 151.528 162.541 150.943 162.488C149.028 162.316 147.514 162.348 147.514 162.348C147.2 162.35 146.888 162.399 146.589 162.494C145.861 162.722 145.241 163.206 144.843 163.857C144.445 164.508 144.297 165.281 144.427 166.033C144.556 166.785 144.954 167.464 145.546 167.945C146.138 168.426 146.885 168.675 147.647 168.647C147.647 168.647 148.764 168.663 150.026 168.751C148.584 173.44 148.361 179.23 150.425 186.204C153.21 195.613 160.739 201.016 164.312 199.959C169.636 198.383 170.139 197.324 169.493 195.141C169.184 194.096 165.865 193.071 165.865 193.071C169.627 189.79 175.015 186.849 181.224 185.1C186.857 183.514 193.185 182.951 199.343 183.162C205.219 183.36 204.623 188.027 213.42 185.423C215.132 184.916 215.333 183.748 214.953 182.993C214.31 181.722 211.298 180.893 210.823 179.552C209.49 175.792 213.343 172.784 216.642 171.19C219.942 169.589 235.526 163.015 231.799 150.423C220.227 143.863 206.717 147.172 206.717 147.172C206.717 147.172 203.511 140.212 200.506 141.101ZM213.541 152.542C214.791 152.172 216.106 152.887 216.476 154.137C216.846 155.387 216.132 156.702 214.882 157.072C213.631 157.442 212.317 156.731 211.946 155.478C211.576 154.228 212.291 152.913 213.541 152.542Z" fill="#A2E2B8"/>
            <path d="M78.4986 107.025C61.2926 104.474 45.3601 115.794 42.9109 132.312C42.104 137.754 43.8769 140.097 45.958 140.406C47.6666 140.659 50.3051 139.017 54.4932 138.83C53.8778 141.266 53.1044 143.159 52.2625 145.109C51.0642 147.885 49.7066 150.897 49.0695 155.194C48.4324 159.491 49.0277 162.289 49.476 164.489C49.9244 166.689 50.2858 168.464 49.6443 172.791C49.5772 173.203 49.5927 173.624 49.6898 174.03C49.787 174.436 49.9638 174.818 50.2101 175.155C50.4564 175.492 50.7672 175.777 51.1244 175.993C51.4817 176.208 51.8782 176.351 52.2911 176.412C52.704 176.474 53.1249 176.452 53.5294 176.349C53.9339 176.246 54.3139 176.064 54.6473 175.813C54.9808 175.562 55.261 175.247 55.4718 174.887C55.6825 174.527 55.8196 174.128 55.8749 173.715C56.6191 168.695 56.1175 165.555 55.6443 163.233C55.1712 160.912 54.7867 159.582 55.3002 156.118C55.8137 152.655 56.8217 150.45 58.0481 147.609C58.9781 145.454 60.0078 142.963 60.7755 139.699C64.0876 140.772 66.506 142.506 69.7715 143.613C69.1354 146.379 68.2933 148.412 67.3773 150.534C66.1789 153.31 64.8214 156.322 64.1843 160.619C63.5471 164.916 63.9722 168.193 64.3134 171.197C64.6547 174.202 64.9387 177.004 64.2971 181.331C64.23 181.743 64.2455 182.164 64.3427 182.57C64.4398 182.976 64.6167 183.358 64.8629 183.695C65.1092 184.032 65.42 184.317 65.7772 184.533C66.1345 184.749 66.5311 184.891 66.9439 184.953C67.3568 185.014 67.7777 184.992 68.1822 184.89C68.5867 184.787 68.9667 184.604 69.3002 184.353C69.6336 184.102 69.9139 183.788 70.1246 183.427C70.3354 183.067 70.4724 182.669 70.5278 182.255C71.272 177.236 70.9247 173.559 70.5754 170.484C70.2262 167.409 69.9014 165.007 70.4149 161.543C70.9284 158.08 71.9365 155.875 73.1629 153.033C74.1408 150.768 75.2179 148.098 75.9958 144.58C79.4422 144.51 82.2408 143.566 85.6475 143.443C85.0318 145.882 84.2585 147.776 83.4159 149.728C82.2175 152.504 80.86 155.517 80.2228 159.814C79.5857 164.111 80.1811 166.908 80.6294 169.108C81.0777 171.308 81.4392 173.083 80.7976 177.41C80.7306 177.822 80.7461 178.243 80.8432 178.649C80.9403 179.055 81.1172 179.437 81.3635 179.774C81.6097 180.111 81.9205 180.396 82.2778 180.612C82.635 180.828 83.0316 180.97 83.4444 181.032C83.8573 181.093 84.2782 181.071 84.6827 180.968C85.0872 180.866 85.4672 180.683 85.8007 180.432C86.1341 180.181 86.4144 179.867 86.6251 179.506C86.8359 179.146 86.9729 178.747 87.0283 178.334C87.7725 173.315 87.2708 170.174 86.7977 167.853C86.3245 165.531 85.94 164.201 86.4535 160.738C86.967 157.274 87.9751 155.069 89.2015 152.228C90.1309 150.075 91.1604 147.586 91.928 144.324C96.0905 145.702 98.205 148.153 99.953 148.412C102.034 148.72 104.411 146.993 105.218 141.55C107.667 125.033 95.7046 109.576 78.4986 107.025Z" fill="#9583C4"/>
            <path d="M124.552 170.851C109.213 164.213 91.396 171.267 84.7583 186.607C84.5939 186.987 84.4571 187.37 84.3093 187.753C83.548 187.439 82.694 187.435 81.9302 187.743C81.1663 188.051 80.5534 188.645 80.2227 189.4C79.8919 190.154 79.8697 191.007 80.1607 191.778C80.4517 192.548 81.0328 193.174 81.7795 193.521C81.7795 193.521 94.0719 199.141 113.562 200.585C132.402 201.982 144.186 197.531 144.186 197.531C144.784 197.313 145.301 196.92 145.671 196.403C146.041 195.886 146.246 195.269 146.258 194.633C146.271 193.997 146.091 193.373 145.742 192.841C145.392 192.31 144.891 191.897 144.302 191.656C143.557 191.351 142.724 191.343 141.973 191.633C139.836 182.673 133.658 174.791 124.552 170.851ZM159.862 199.857C153.729 197.203 149.478 201.399 139.37 204.742C123.014 210.153 95.8321 205.251 79.2667 199.297C78.8405 200.282 80.6961 203.407 84.3197 207.12L81.5091 210.301C80.342 211.618 80.8055 213.689 82.4212 214.389L88.3995 216.976C89.8158 217.589 91.4342 217.476 92.7525 216.674L94.797 215.434C97.3731 217.059 100.153 218.63 103.272 219.98C109.036 222.474 114.466 223.186 119.477 222.957L120.523 228.423C120.846 230.097 121.978 231.506 123.541 232.182L129.751 234.87C131.335 235.555 133.12 234.482 133.269 232.766L134.403 219.705C141.198 217.283 146.419 214.629 149.303 215.877C149.303 215.877 150.437 219.8 153.833 221.269C157.227 222.738 162.142 221.894 164.467 216.521C167.551 209.393 164.437 201.837 159.862 199.857Z" fill="#ED6278"/>
            <path d="M202.743 186.993C200.205 187.551 198.586 190.084 199.144 192.622C199.605 194.714 201.413 196.159 203.455 196.296C205.498 198.864 207.931 200.353 210.183 201.284C208.973 203.285 208.48 205.723 209.016 208.173L209.017 208.179L209.018 208.185C209.02 208.191 209.021 208.197 209.022 208.203C210.382 214.331 214.124 216.734 215.476 222.875C217.303 231.18 211.514 235.809 196.89 240.997C181.877 246.344 177.092 253.354 175.719 257.157C175.181 258.237 175.082 259.13 175.225 259.779C175.775 262.276 179.935 262.956 185.752 261.676L222.247 253.645C230.109 251.915 243.261 246.56 239.973 231.618C237.611 220.886 229.947 215.363 227.471 204.112C226.933 201.685 225.479 199.698 223.566 198.389C224.956 196.672 226.269 194.364 227.173 191.196C229.196 190.313 230.394 188.086 229.902 185.853C229.344 183.316 226.811 181.696 224.273 182.255C221.736 182.813 220.117 185.346 220.675 187.884C220.857 188.71 221.266 189.423 221.798 190.011C220.898 193.04 219.618 194.772 218.546 195.81C218.053 196.285 217.664 196.575 217.327 196.796C216.957 196.832 216.587 196.845 216.215 196.927C215.893 196.998 215.6 197.129 215.293 197.231C213.594 197.097 210.639 196.358 208.141 193.35C208.48 192.502 208.582 191.546 208.372 190.591C207.813 188.054 205.28 186.434 202.743 186.993ZM224.083 213.53C225.448 216.487 227.01 219.084 228.479 221.488C230.839 225.357 232.881 228.699 233.821 232.972C234.358 235.41 235.84 242.246 225.526 246.134C228.184 242.623 228.53 238.235 227.67 234.325C225.549 224.689 222.729 223.6 220.382 215.346C221.784 215.02 223.021 214.377 224.083 213.53Z" fill="#C1EDE8"/>
        </g>
    </g>
    <defs>
        <filter id="filter0_d" x="0" y="0" width="280" height="280" filterUnits="userSpaceOnUse" color-interpolation-filters="sRGB">
            <feFlood flood-opacity="0" result="BackgroundImageFix"/>
            <feColorMatrix in="SourceAlpha" type="matrix" values="0 0 0 0 0 0 0 0 0 0 0 0 0 0 0 0 0 0 127 0"/>
            <feOffset dy="20"/>
            <feGaussianBlur stdDeviation="25"/>
            <feColorMatrix type="matrix" values="0 0 0 0 0 0 0 0 0 0 0 0 0 0 0 0 0 0 0.2 0"/>
            <feBlend mode="normal" in2="BackgroundImageFix" result="effect1_dropShadow"/>
            <feBlend mode="normal" in="SourceGraphic" in2="effect1_dropShadow" result="shape"/>
        </filter>
    </defs>
</svg>
