<svg width="14" height="16" viewBox="0 0 14 16" fill="none" xmlns="http://www.w3.org/2000/svg">
    <path d="M10.0938 0.75C9.229 0.80025 8.23625 1.28201 7.646 1.89551C7.11275 2.45351 6.69202 3.28223 6.86377 4.08398C7.80352 4.10873 8.74677 3.6145 9.31152 2.98975C9.83877 2.4055 10.2385 1.59 10.0938 0.75ZM10.145 4.08252C8.78827 4.08252 8.221 4.91602 7.28125 4.91602C6.3145 4.91602 5.43074 4.13525 4.26074 4.13525C2.66924 4.136 0.25 5.61025 0.25 9.0835C0.25 12.2432 3.11324 15.75 4.72949 15.75C5.71124 15.7598 5.94925 15.1327 7.28125 15.126C8.61475 15.1162 8.90249 15.7583 9.88574 15.75C10.9927 15.7417 11.8573 14.5253 12.4888 13.5615C12.9418 12.8715 13.128 12.5193 13.479 11.7393C10.8743 11.0793 10.356 6.87875 13.479 6.01025C12.8895 5.0045 11.1688 4.08252 10.145 4.08252Z" fill="#1FB141"/>
</svg>
