<svg width="15" height="18" viewBox="0 0 15 18" fill="none" xmlns="http://www.w3.org/2000/svg">
    <path d="M3.24376 7.25757L7.52938 15.6458L0.32605 7.25757H3.24376Z" fill="#1FB141"/>
    <path d="M11.815 7.25757L7.52933 15.6458L14.7327 7.25757H11.815Z" fill="#1FB141"/>
    <path d="M3.2439 7.25757H11.8151L7.52952 15.6458L3.2439 7.25757Z" fill="#1FB141" fill-opacity="0.6"/>
    <path d="M7.52952 2.60864L3.46945 3.03787L3.2439 7.25743L7.52952 2.60864Z" fill="#1FB141" fill-opacity="0.3"/>
    <path d="M7.52944 2.60864L11.5895 3.03787L11.8151 7.25743L7.52944 2.60864Z" fill="#1FB141" fill-opacity="0.3"/>
    <path d="M14.7327 7.25753L11.5894 3.03796L11.815 7.25753H14.7327Z" fill="#1FB141" fill-opacity="0.6"/>
    <path d="M0.32605 7.25753L3.46931 3.03796L3.24376 7.25753H0.32605Z" fill="#1FB141" fill-opacity="0.6"/>
    <path d="M7.52952 2.60864L3.2439 7.25743H11.8151L7.52952 2.60864Z" fill="#1FB141" fill-opacity="0.1"/>
</svg>
