<svg width="46" height="46" viewBox="0 0 46 46" fill="none" xmlns="http://www.w3.org/2000/svg">
    <circle cx="23" cy="23" r="22.5" fill="white" stroke="#F5F5F5"/>
    <path fill-rule="evenodd" clip-rule="evenodd" d="M27.2929 17.2929C27.6834 16.9024 28.3166 16.9024 28.7071 17.2929C29.0976 17.6834 29.0976 18.3166 28.7071 18.7071L24.4142 23L28.7071 27.2929C29.0976 27.6834 29.0976 28.3166 28.7071 28.7071C28.3166 29.0976 27.6834 29.0976 27.2929 28.7071L23 24.4142L18.7071 28.7071C18.3166 29.0976 17.6834 29.0976 17.2929 28.7071C16.9024 28.3166 16.9024 27.6834 17.2929 27.2929L21.5858 23L17.2929 18.7071C16.9024 18.3166 16.9024 17.6834 17.2929 17.2929C17.6834 16.9024 18.3166 16.9024 18.7071 17.2929L23 21.5858L27.2929 17.2929Z" fill="#1D1D1D"/>
</svg>
